<svg width="70" height="70" viewBox="0 0 70 70" fill="none" xmlns="http://www.w3.org/2000/svg">
<path d="M64.9207 15.9113C64.9207 28.4212 64.9207 40.9312 64.9207 53.4411C45.0004 42.2061 25.0004 64.6762 5.08008 53.4411C5.08008 40.9312 5.08008 28.4212 5.08008 15.9113C25.0004 27.1463 45.0004 4.67619 64.9207 15.9113Z" fill="#2E4593"/>
<path d="M64.9207 49.5357C64.9207 50.8106 64.9207 52.1651 64.9207 53.44C62.849 52.2448 60.7773 51.448 58.7056 50.9699C52.5701 45.5516 46.4347 42.7627 40.2992 40.452C39.6618 40.2129 39.104 39.9739 38.4665 39.8145C37.7494 39.5755 37.0323 39.3365 36.3151 39.0177C36.0761 38.938 35.8371 38.8584 35.598 38.7787C34.8809 38.5396 34.1637 38.3006 33.3669 37.9819C33.1279 37.9022 32.8092 37.8225 32.5701 37.6631C32.3311 37.5835 32.092 37.5038 31.853 37.4241C31.3749 37.2647 30.8968 37.1054 30.4984 36.946C30.339 36.8663 30.1797 36.8663 30.0203 36.7867C29.7813 36.707 29.5422 36.6273 29.3829 36.5476C27.2315 35.7508 25.0004 34.8743 22.849 33.7588C21.8928 33.2807 20.857 32.8026 19.9008 32.2448C14.9606 29.5357 10.0203 25.711 5.08008 19.8942C5.08008 18.6193 5.08008 17.2647 5.08008 15.9898C5.08008 15.9898 5.08008 15.9898 5.15976 15.9102C5.15976 15.9898 5.23944 15.9898 5.23944 16.0695C7.23147 17.1851 9.30319 17.9819 11.2952 18.46C17.5104 23.8783 23.8052 26.7468 30.0203 29.0576C30.6578 29.2966 31.2155 29.5357 31.853 29.695C32.0124 29.7747 32.1717 29.7747 32.3311 29.8544C33.2872 30.1731 34.3231 30.5715 35.2793 30.8902C35.359 30.8902 35.4386 30.9699 35.598 30.9699C35.9964 31.1293 36.3151 31.209 36.7135 31.3683C37.2713 31.6074 37.9088 31.7667 38.4665 32.0058C38.5462 32.0058 38.7056 32.0855 38.7853 32.0855C39.2633 32.2448 39.8211 32.4839 40.2992 32.6432C40.7773 32.8026 41.3351 33.0416 41.8131 33.201C43.1677 33.7588 44.5223 34.2368 45.8769 34.8743C46.8331 35.3524 47.8689 35.8305 48.8251 36.3086C54.1637 39.1771 59.5821 43.0815 64.9207 49.5357Z" fill="#FCF5FF"/>
<path d="M64.9207 53.3604C64.9207 53.44 64.9207 53.44 64.9207 53.5197C63.5661 52.7229 62.2115 52.1651 60.9366 51.687C54.0841 44.9141 47.2315 41.6472 40.2992 39.0974C39.7414 38.8584 39.104 38.699 38.5462 38.46H38.4665C37.9088 38.2209 37.2713 38.0616 36.7135 37.8225C36.3151 37.6631 35.9964 37.5835 35.6777 37.4241C35.0402 37.1851 34.4028 36.946 33.6857 36.707C33.0482 36.4679 32.4904 36.3086 31.853 36.0695C31.7733 36.0695 31.6936 35.9898 31.6139 35.9898C31.2155 35.8305 30.8968 35.7508 30.4984 35.5914C30.339 35.5117 30.1797 35.5117 30.0203 35.4321C28.347 34.7946 26.7534 34.1572 25.0801 33.44C24.1239 33.0416 23.1677 32.5635 22.1319 32.0855C16.4745 29.2169 10.7374 25.2329 5.08008 18.46C5.08008 17.5835 5.08008 16.707 5.08008 15.9102C5.08008 15.9102 5.08008 15.9102 5.15976 15.9102C5.15976 15.9898 5.23944 15.9898 5.23944 16.0695C12.2514 24.3564 19.2633 28.4998 26.2753 31.3683C27.2315 31.7667 28.1876 32.1651 29.2235 32.5635C29.4625 32.6432 29.7813 32.7229 30.0203 32.8823C30.6578 33.1213 31.2155 33.3604 31.853 33.5197C32.092 33.5994 32.3311 33.6791 32.5701 33.7588C32.9685 33.9181 33.2872 33.9978 33.6857 34.1572C34.4028 34.3962 35.0402 34.6353 35.7574 34.8743C36.6339 35.193 37.59 35.5117 38.4665 35.8305C38.5462 35.8305 38.7056 35.9102 38.7853 35.9102C39.104 36.0695 39.4227 36.1492 39.8211 36.3086C39.9805 36.3882 40.2195 36.4679 40.3789 36.5476C41.1757 36.8663 41.9725 37.1851 42.7693 37.5038C50.1 40.3723 57.5104 44.5157 64.9207 53.3604Z" fill="#F42525"/>
<path d="M64.9203 16.6291C64.9203 17.904 64.9203 19.2585 64.9203 20.5334C60.3785 20.8522 55.8366 22.8442 51.2948 25.8721C50.3386 26.5095 49.3028 27.2267 48.3466 27.9438C46.1952 29.5374 43.9641 31.3701 41.8127 33.2028C41.3347 33.6012 40.7769 34.0793 40.2988 34.4777C39.8207 34.9557 39.2629 35.3542 38.7849 35.8322C38.7052 35.9119 38.5458 35.9916 38.4661 36.0713C38.2271 36.3103 37.988 36.4697 37.749 36.7087C37.3506 37.0275 37.0319 37.3462 36.6335 37.6649C36.2351 37.9836 35.9163 38.382 35.5179 38.7008C35.2789 38.9398 35.0398 39.1789 34.8008 39.3382C33.7649 40.2147 32.8088 41.1709 31.7729 42.0474C31.1355 42.6052 30.5777 43.1629 29.9402 43.7207C24.1235 48.9 18.2271 53.6012 12.4104 56.151C9.94024 55.6729 7.47012 54.7964 5 53.4418C5 52.4059 5 51.2904 5 50.2546C10.7371 49.8561 16.5538 46.6689 22.2908 42.2864C23.247 41.5693 24.2032 40.7725 25.239 39.9757C26.5936 38.8601 27.9482 37.7446 29.3028 36.5494C29.5418 36.39 29.7809 36.151 29.9402 35.9119C30.0996 35.7526 30.259 35.6729 30.4183 35.5135C30.8964 35.1151 31.3745 34.7167 31.7729 34.2386C32.0119 33.9996 32.251 33.8402 32.49 33.6012C33.5259 32.645 34.4821 31.7685 35.5179 30.8123C35.5976 30.7326 35.6773 30.653 35.8367 30.5733C36.7131 29.7765 37.5896 28.9797 38.4661 28.1828C38.5458 28.1032 38.7052 28.0235 38.7849 27.8641C39.2629 27.386 39.8207 26.9876 40.2988 26.5095C46.8327 20.7725 53.3665 15.6729 59.8207 13.5215C61.3347 13.9996 62.8486 14.637 64.4422 15.4338C64.6016 15.9916 64.7609 16.3103 64.9203 16.6291Z" fill="#FCF5FF"/>
<path d="M64.7614 16.708C58.2275 17.1861 51.6936 21.2499 45.1598 26.5088C44.2036 27.3056 43.1677 28.1025 42.2116 28.979C41.5741 29.5367 40.9367 30.0945 40.2195 30.6523C39.7414 31.1303 39.1837 31.5288 38.7056 32.0068C38.6259 32.0865 38.4665 32.1662 38.3869 32.2459C37.5104 33.0427 36.5542 33.9192 35.6777 34.716C34.9606 35.3535 34.3231 35.9909 33.606 36.6284C33.2076 36.9471 32.8888 37.3455 32.4904 37.6642C32.2514 37.9033 32.0123 38.0626 31.7733 38.3017C31.6936 38.3813 31.6936 38.3813 31.6139 38.461C31.0562 38.9391 30.4984 39.4969 29.9406 39.975C29.5422 40.3734 29.1438 40.6921 28.7454 41.0905C21.3351 47.6244 13.845 53.1224 6.43466 54.1582C5.95657 53.9192 5.55817 53.6801 5.08008 53.4411C5.08008 52.8833 5.08008 52.2459 5.08008 51.6881C11.6139 51.2897 18.1478 47.226 24.6817 41.967C25.6378 41.1702 26.6737 40.3734 27.6299 39.4969C28.4267 38.7797 29.2235 38.0626 30.1 37.3455C30.2594 37.1861 30.4187 37.1064 30.5781 36.9471C30.9765 36.6284 31.2952 36.3096 31.6936 35.9112C31.7733 35.8315 31.853 35.7519 31.9327 35.6722C32.5701 35.1144 33.1279 34.5566 33.7653 33.9989C34.8012 33.1224 35.7574 32.1662 36.7932 31.21C37.2713 30.8116 37.7494 30.3335 38.2275 29.9351C38.3869 29.8554 38.4665 29.6961 38.5462 29.6164C39.1837 29.0586 39.7414 28.5009 40.3789 27.9431C40.6179 27.7041 40.857 27.5447 41.096 27.3056C48.108 21.3295 55.1199 16.0706 62.1319 14.5566C62.849 14.8754 63.4865 15.1941 64.2036 15.5128C64.4426 15.6722 64.6817 15.7519 64.9207 15.9112C64.9207 16.2299 64.9207 16.469 64.9207 16.708C64.9207 16.708 64.841 16.708 64.7614 16.708Z" fill="#F42525"/>
<path d="M65 39.4163C45 28.1015 25 50.731 5 39.4163C5 35.99 5 32.5637 5 29.1374C25 40.4521 45 17.8226 65 29.1374C65 32.5637 65 35.99 65 39.4163Z" fill="white"/>
<path d="M65 37.5849C45 26.2702 25 48.8996 5 37.5849C5 35.3538 5 33.2024 5 30.9714C25 42.2861 45 19.6566 65 30.9714C65 33.1228 65 35.3538 65 37.5849Z" fill="#F42525"/>
<path d="M38.4651 14.9551C38.4651 27.465 38.4651 39.975 38.4651 52.485C36.234 53.1224 34.0826 53.7599 31.8516 54.3176C31.8516 41.8077 31.8516 29.2977 31.8516 16.7877C34.0826 16.1503 36.234 15.5128 38.4651 14.9551Z" fill="#CD002A"/>
<path d="M38.4657 38.4606C39.1032 38.3013 39.661 38.1419 40.2984 37.9825C40.2984 42.6837 40.2984 47.3849 40.2984 52.0064C36.8721 52.8829 33.4458 53.9188 30.0195 54.7953C30.0195 50.0941 30.0195 45.4726 30.0195 40.7714C30.657 40.612 31.2148 40.4527 31.8522 40.2933C31.8522 36.867 31.8522 33.4407 31.8522 30.0144C31.2148 30.1738 30.657 30.3331 30.0195 30.4925C30.0195 26.11 30.0195 21.7276 30.0195 17.2654C33.4458 16.3889 36.8721 15.3531 40.2984 14.4766C40.2984 18.859 40.2984 23.2415 40.2984 27.7037C39.661 27.863 39.1032 28.0224 38.4657 28.1817C38.4657 31.608 38.4657 35.0343 38.4657 38.4606Z" fill="white"/>
<path d="M38.4647 14.9551C38.4647 27.465 38.4647 39.975 38.4647 52.485C36.2336 53.1224 34.0026 53.7599 31.7715 54.3176C31.7715 41.8077 31.7715 29.2977 31.7715 16.7877C34.0026 16.1503 36.2336 15.5128 38.4647 14.9551Z" fill="#F42525"/>
</svg>
