<svg width="84" height="84" viewBox="0 0 84 84" fill="none" xmlns="http://www.w3.org/2000/svg">
<mask id="mask0_286_5473" style="mask-type:alpha" maskUnits="userSpaceOnUse" x="0" y="0" width="84" height="84">
<rect width="84" height="84" fill="#D9D9D9"/>
</mask>
<g mask="url(#mask0_286_5473)">
<path d="M41.9914 54.2414C38.6081 54.2414 35.7206 53.0456 33.3289 50.6539C30.9372 48.2622 29.7414 45.3747 29.7414 41.9914C29.7414 38.6081 30.9372 35.7206 33.3289 33.3289C35.7206 30.9372 38.6081 29.7414 41.9914 29.7414C45.3747 29.7414 48.2622 30.9372 50.6539 33.3289C53.0456 35.7206 54.2414 38.6081 54.2414 41.9914C54.2414 45.3747 53.0456 48.2622 50.6539 50.6539C48.2622 53.0456 45.3747 54.2414 41.9914 54.2414ZM41.9914 48.9914C43.9164 48.9914 45.5649 48.3054 46.9369 46.9334C48.3066 45.5637 48.9914 43.9164 48.9914 41.9914C48.9914 40.0664 48.3066 38.4179 46.9369 37.0459C45.5649 35.6762 43.9164 34.9914 41.9914 34.9914C40.0664 34.9914 38.4191 35.6762 37.0494 37.0459C35.6774 38.4179 34.9914 40.0664 34.9914 41.9914C34.9914 43.9164 35.6774 45.5637 37.0494 46.9334C38.4191 48.3054 40.0664 48.9914 41.9914 48.9914ZM58.7039 75.4164C59.6956 72.2081 60.4399 69.1747 60.9369 66.3164C61.4316 63.4581 61.7956 60.8914 62.0289 58.6164C59.6956 61.5331 56.7789 63.8664 53.2789 65.6164C49.7789 67.3664 46.0164 68.2414 41.9914 68.2414C33.5331 68.2414 26.7081 67.8331 21.5164 67.0164C16.3247 66.1997 12.0081 65.2956 8.56641 64.3039V58.7039C11.8331 59.7539 14.8956 60.5122 17.7539 60.9789C20.6122 61.4456 23.1789 61.7956 25.4539 62.0289C22.6539 59.8706 20.3346 57.0262 18.4959 53.4959C16.6596 49.9679 15.7414 46.1331 15.7414 41.9914C15.7414 34.9914 16.1649 28.6179 17.0119 22.8709C17.8566 17.1262 18.7164 12.3581 19.5914 8.56641H25.1914C24.2581 12.0664 23.5581 15.1872 23.0914 17.9289C22.6247 20.6706 22.2456 23.1789 21.9539 25.4539C24.1706 22.5372 27.0289 20.1887 30.5289 18.4084C34.0289 16.6304 37.8497 15.7414 41.9914 15.7414C49.7497 15.7414 56.3414 16.1497 61.7664 16.9664C67.1914 17.7831 71.7414 18.6581 75.4164 19.5914V25.1914C72.1497 24.2581 69.0581 23.5289 66.1414 23.0039C63.2247 22.4789 60.6872 22.1289 58.5289 21.9539C61.5622 24.2872 63.9399 27.2179 65.6619 30.7459C67.3816 34.2762 68.2414 38.0247 68.2414 41.9914C68.2414 50.0997 67.8191 56.8372 66.9744 62.2039C66.1274 67.5706 65.2372 71.9747 64.3039 75.4164H58.7039ZM41.9914 62.9914C47.8247 62.9914 52.7831 60.9497 56.8664 56.8664C60.9497 52.7831 62.9914 47.8247 62.9914 41.9914C62.9914 36.1581 60.9497 31.1997 56.8664 27.1164C52.7831 23.0331 47.8247 20.9914 41.9914 20.9914C36.1581 20.9914 31.1997 23.0331 27.1164 27.1164C23.0331 31.1997 20.9914 36.1581 20.9914 41.9914C20.9914 47.8247 23.0331 52.7831 27.1164 56.8664C31.1997 60.9497 36.1581 62.9914 41.9914 62.9914Z" fill="#85B867"/>
</g>
</svg>
