<svg width="84" height="84" viewBox="0 0 84 84" fill="none" xmlns="http://www.w3.org/2000/svg">
<mask id="mask0_286_5470" style="mask-type:alpha" maskUnits="userSpaceOnUse" x="0" y="0" width="84" height="84">
<rect width="84" height="84" fill="#D9D9D9"/>
</mask>
<g mask="url(#mask0_286_5470)">
<path d="M39.375 76.125V60.375L27.125 72.45L23.45 68.775L39.375 52.85V44.625H31.15L15.225 60.55L11.55 56.875L23.625 44.625H7.875V39.375H23.625L11.55 27.125L15.225 23.45L31.15 39.375H39.375V31.15L23.45 15.225L27.125 11.55L39.375 23.625V7.875H44.625V23.625L56.875 11.55L60.55 15.225L44.625 31.15V39.375H52.85L68.775 23.45L72.45 27.125L60.375 39.375H76.125V44.625H60.375L72.45 56.875L68.775 60.55L52.85 44.625H44.625V52.85L60.55 68.775L56.875 72.45L44.625 60.375V76.125H39.375Z" fill="#85B867"/>
</g>
</svg>
