<svg width="161" height="81" viewBox="0 0 161 81" fill="none" xmlns="http://www.w3.org/2000/svg">
<path d="M11.7791 1.73519V20.3924H32.9805V1.73519C32.9805 0.887137 33.6401 0.227539 34.4881 0.227539H42.9687C43.8168 0.227539 44.4764 0.887137 44.4764 1.73519V51.2052C44.4764 52.0532 43.8168 52.7128 42.9687 52.7128H34.4881C33.6401 52.7128 32.9805 52.0532 32.9805 51.2052V30.098H11.7791V51.2052C11.7791 52.0532 11.1195 52.7128 10.2714 52.7128H1.79086C0.942801 52.7128 0.283203 52.0532 0.283203 51.2052V1.73519C0.283203 0.887137 0.942801 0.227539 1.79086 0.227539H10.2714C11.1195 0.227539 11.7791 0.887137 11.7791 1.73519Z" fill="white"/>
<path d="M79.0582 52.7129C78.3044 52.7129 77.6448 52.0533 77.6448 51.2994V47.4361H77.4563C76.1371 49.6033 74.441 51.2052 72.2738 52.2417C70.2007 53.184 68.0335 53.7494 65.772 53.7494C62.9451 53.7494 60.6837 53.3725 58.8933 52.6186C57.103 51.8648 55.6895 50.8283 54.653 49.5091C53.6165 48.1899 52.8627 46.4938 52.4858 44.6092C52.1089 42.6304 51.8262 40.5574 51.8262 38.2017V16.058C51.8262 15.3041 52.4858 14.6445 53.2396 14.6445H60.7779C61.6259 14.6445 62.2855 15.3041 62.2855 16.1522V36.1286C62.2855 39.2382 62.7567 41.5939 63.7932 43.1015C64.7355 44.6092 66.5258 45.4573 68.9758 45.4573C71.8026 45.4573 73.8756 44.6092 75.1006 42.9131C76.4198 41.217 76.9852 38.4843 76.9852 34.621V16.2464C76.9852 15.3984 77.6448 14.7388 78.4928 14.7388H85.8427C86.6907 14.7388 87.3503 15.3984 87.3503 16.3406V51.3937C87.3503 52.1475 86.6907 52.8071 85.9369 52.8071H79.0582V52.7129Z" fill="white"/>
<path d="M103.274 14.7387C104.122 14.7387 104.782 15.3983 104.782 16.2463V21.8058H104.97C105.441 20.6751 106.101 19.5443 106.949 18.5078C107.797 17.4713 108.739 16.6232 109.776 15.9636C110.812 15.2098 112.037 14.7387 113.262 14.2675C114.487 13.8906 115.806 13.7021 117.126 13.7021C117.503 13.7021 117.879 13.7021 118.256 13.7964C118.916 13.8906 119.387 14.456 119.387 15.1156V22.0885C119.387 22.9365 118.633 23.5961 117.879 23.5019C117.785 23.5019 117.691 23.5019 117.691 23.5019C117.031 23.4077 116.372 23.4077 115.712 23.4077C113.828 23.4077 112.226 23.6904 110.907 24.35C109.587 25.0096 108.551 25.8576 107.703 26.9884C106.855 28.1191 106.289 29.3441 106.007 30.8517C105.63 32.3594 105.536 33.8671 105.536 35.6574V51.2993C105.536 52.1474 104.876 52.807 104.028 52.807H96.5838C95.7358 52.807 95.0762 52.1474 95.0762 51.2993V16.1521C95.0762 15.304 95.7358 14.6444 96.5838 14.6444H103.274V14.7387Z" fill="white"/>
<path d="M122.591 25.4807C123.533 23.0308 124.853 20.8635 126.549 19.1674C128.245 17.4713 130.318 16.0579 132.768 15.1156C135.124 14.1733 137.856 13.7021 140.871 13.7021C143.887 13.7021 146.525 14.1733 148.975 15.1156C151.425 16.0579 153.498 17.3771 155.194 19.1674C156.89 20.8635 158.21 23.0308 159.152 25.4807C160.094 27.9307 160.565 30.7575 160.565 33.7728C160.565 36.7881 160.094 39.5208 159.152 41.9707C158.21 44.4206 156.89 46.4937 155.194 48.284C153.498 49.9801 151.425 51.3936 148.975 52.2416C146.525 53.0897 143.887 53.655 140.871 53.655C137.856 53.655 135.218 53.1839 132.768 52.2416C130.412 51.2993 128.339 49.9801 126.549 48.284C124.853 46.5879 123.533 44.4206 122.591 41.9707C121.649 39.5208 121.178 36.7881 121.178 33.7728C121.178 30.6633 121.649 27.9307 122.591 25.4807ZM132.014 38.2016C132.297 39.615 132.768 40.9342 133.522 42.0649C134.276 43.1957 135.218 44.138 136.349 44.7976C137.479 45.4572 138.987 45.8341 140.777 45.8341C142.568 45.8341 143.981 45.4572 145.206 44.7976C146.431 44.138 147.373 43.1957 148.033 42.0649C148.787 40.9342 149.258 39.615 149.541 38.2016C149.823 36.7881 150.012 35.2805 150.012 33.7728C150.012 32.2652 149.823 30.7575 149.541 29.2499C149.258 27.7422 148.787 26.5172 148.033 25.3865C147.279 24.2557 146.337 23.3135 145.206 22.6539C143.981 21.9 142.568 21.6173 140.777 21.6173C138.987 21.6173 137.573 21.9943 136.349 22.6539C135.218 23.4077 134.276 24.2557 133.522 25.3865C132.768 26.5172 132.297 27.8364 132.014 29.2499C131.731 30.7575 131.543 32.1709 131.543 33.7728C131.637 35.2805 131.731 36.6939 132.014 38.2016Z" fill="white"/>
<path d="M27.7982 80.039C27.3271 80.039 26.9501 79.9448 26.7617 79.6621C26.479 79.3794 26.3848 79.0967 26.3848 78.6255V61.8529C26.3848 61.3817 26.479 61.0048 26.7617 60.8164C27.0444 60.5337 27.3271 60.4395 27.7982 60.4395C28.2693 60.4395 28.6462 60.5337 28.8347 60.8164C29.1174 61.0991 29.2116 61.3817 29.2116 61.8529V78.6255C29.2116 79.0967 29.1174 79.4736 28.8347 79.6621C28.6462 79.9448 28.2693 80.039 27.7982 80.039Z" fill="white"/>
<path d="M49.8467 80.1337C48.0564 80.1337 46.4545 79.7568 45.0411 78.9087C43.7219 78.0607 42.5911 76.9299 41.9315 75.4223C41.1777 73.9146 40.8008 72.2185 40.8008 70.1455C40.8008 68.6378 40.9892 67.3186 41.4604 66.0936C41.8373 64.8687 42.4969 63.8322 43.2507 62.9841C44.0045 62.136 44.9468 61.4764 46.0776 61.0053C47.2083 60.5342 48.4333 60.3457 49.8467 60.3457C51.7313 60.3457 53.2389 60.7226 54.6524 61.5707C55.9716 62.4187 57.0081 63.5495 57.7619 64.9629C58.5157 66.4706 58.8926 68.1667 58.8926 70.1455C58.8926 71.6531 58.7042 73.0666 58.2331 74.2915C57.8561 75.5165 57.1965 76.553 56.4427 77.4011C55.6889 78.2491 54.6524 78.9087 53.6159 79.3799C52.4851 79.851 51.2601 80.1337 49.8467 80.1337ZM49.8467 77.6837C51.1659 77.6837 52.2024 77.4011 53.1447 76.8357C54.087 76.2703 54.7466 75.4223 55.2177 74.2915C55.6889 73.1608 55.9716 71.8416 55.9716 70.2397C55.9716 67.884 55.4062 66.0936 54.3697 64.7744C53.3332 63.4552 51.8255 62.7956 49.8467 62.7956C48.5275 62.7956 47.491 63.0783 46.5487 63.6437C45.6064 64.2091 44.9468 65.0571 44.4757 66.1879C44.0046 67.3186 43.7219 68.6378 43.7219 70.2397C43.7219 72.5954 44.2872 74.3858 45.3237 75.705C46.4545 77.0242 47.9621 77.6837 49.8467 77.6837Z" fill="white"/>
<path d="M75.3824 80.0395C74.9113 80.0395 74.5344 79.9453 74.3459 79.6626C74.0632 79.3799 73.969 79.0972 73.969 78.6261V62.9841H68.2211C67.8442 62.9841 67.5615 62.8899 67.2788 62.7015C67.0903 62.513 66.9961 62.2303 66.9961 61.8534C66.9961 61.4765 67.0903 61.1938 67.2788 61.0053C67.4672 60.8169 67.8442 60.7227 68.2211 60.7227H82.638C83.0149 60.7227 83.3919 60.8169 83.5803 61.0053C83.7688 61.1938 83.863 61.4765 83.863 61.8534C83.863 62.2303 83.7688 62.513 83.5803 62.7015C83.3919 62.8899 83.0149 62.9841 82.638 62.9841H76.8901V78.6261C76.8901 79.0972 76.7959 79.4741 76.5132 79.6626C76.2305 79.9453 75.8536 80.0395 75.3824 80.0395Z" fill="white"/>
<path d="M106.101 62.6067C106.29 62.4183 106.384 62.1356 106.384 61.7587C106.384 61.3818 106.29 61.0991 106.101 60.9106C105.913 60.7222 105.63 60.6279 105.253 60.6279H99.5995C98.9399 60.6279 98.4688 61.0991 98.4688 61.7587C98.4688 62.4183 98.9399 62.8894 99.5995 62.8894H105.253C105.63 62.8894 105.913 62.7952 106.101 62.6067Z" fill="white"/>
<path d="M105.253 77.5889H99.5995C98.9399 77.5889 98.4688 78.06 98.4688 78.7196C98.4688 79.3792 98.9399 79.8503 99.5995 79.8503H105.253C105.63 79.8503 105.913 79.7561 106.101 79.5677C106.29 79.3792 106.384 79.0965 106.384 78.7196C106.384 78.3427 106.29 78.06 106.101 77.8716C105.913 77.6831 105.63 77.5889 105.253 77.5889Z" fill="white"/>
<path d="M105.535 70.8987C105.724 70.7103 105.818 70.4276 105.818 70.0507C105.818 69.6737 105.724 69.3911 105.535 69.2026C105.347 69.0141 105.064 68.9199 104.687 68.9199H99.6932C99.0336 68.9199 98.5625 69.3911 98.5625 70.0507C98.5625 70.7103 99.0336 71.1814 99.6932 71.1814H104.687C105.064 71.1814 105.347 71.0872 105.535 70.8987Z" fill="white"/>
<path d="M96.49 62.8899V68.9205V71.182V77.4953V78.2491C96.49 78.7203 96.3957 79.0972 96.1131 79.3799C95.9246 79.5683 95.5477 79.7568 95.1708 79.7568C94.6996 79.7568 94.4169 79.5683 94.2285 79.3799C93.9458 79.0972 93.8516 78.7203 93.8516 78.2491V62.0418C93.8516 61.5707 93.9458 61.1938 94.2285 60.9111C94.4169 60.6284 94.7939 60.5342 95.1708 60.5342C95.5477 60.5342 95.9246 60.7226 96.1131 60.9111C96.3957 61.1938 96.49 61.5707 96.49 62.0418V62.8899Z" fill="white"/>
<path d="M126.172 80.1332C124.194 80.1332 122.592 79.7563 121.178 78.9082C119.765 78.0602 118.728 76.9294 117.974 75.516C117.221 74.0084 116.844 72.3122 116.844 70.2392C116.844 68.7316 117.032 67.4124 117.503 66.1874C117.88 64.9624 118.54 63.9259 119.294 63.0779C120.048 62.2298 121.084 61.5702 122.215 61.0991C123.346 60.6279 124.665 60.4395 126.172 60.4395C127.209 60.4395 128.245 60.6279 129.282 60.9106C130.318 61.1933 131.166 61.6644 131.826 62.1356C132.109 62.324 132.297 62.6067 132.486 62.8894C132.58 63.1721 132.58 63.4548 132.58 63.7375C132.486 64.0201 132.391 64.2086 132.203 64.3971C132.015 64.5855 131.826 64.6797 131.543 64.6797C131.261 64.6797 130.978 64.5855 130.601 64.3971C130.036 63.9259 129.376 63.6432 128.622 63.3605C127.868 63.0778 127.115 63.0779 126.361 63.0779C124.947 63.0779 123.817 63.3605 122.874 63.9259C121.932 64.4913 121.178 65.3393 120.707 66.4701C120.236 67.6008 119.953 68.92 119.953 70.4277C119.953 72.0296 120.236 73.3488 120.707 74.3853C121.178 75.516 121.932 76.3641 122.874 76.9294C123.817 77.4948 124.947 77.7775 126.361 77.7775C127.209 77.7775 127.963 77.6833 128.717 77.4006C129.47 77.2121 130.13 76.8352 130.79 76.3641C131.072 76.1756 131.449 76.0814 131.638 76.0814C131.92 76.0814 132.109 76.1756 132.297 76.3641C132.486 76.5525 132.58 76.741 132.674 77.0237C132.768 77.3064 132.768 77.4948 132.674 77.7775C132.58 78.0602 132.391 78.2486 132.109 78.4371C131.355 79.0025 130.507 79.4736 129.47 79.7563C128.434 79.9448 127.303 80.1332 126.172 80.1332Z" fill="white"/>
<path d="M145.3 80.039C144.829 80.039 144.452 79.9448 144.264 79.6621C143.981 79.3794 143.887 79.0967 143.887 78.6255V61.8529C143.887 61.3817 143.981 61.0048 144.264 60.8164C144.546 60.5337 144.829 60.4395 145.3 60.4395C145.771 60.4395 146.148 60.5337 146.337 60.8164C146.619 61.0991 146.714 61.3817 146.714 61.8529V68.92H157.55V61.8529C157.55 61.3817 157.644 61.0048 157.927 60.8164C158.209 60.5337 158.492 60.4395 158.963 60.4395C159.434 60.4395 159.811 60.5337 160 60.8164C160.282 61.0991 160.377 61.3817 160.377 61.8529V78.6255C160.377 79.0967 160.282 79.4736 160 79.6621C159.717 79.9448 159.434 80.039 158.963 80.039C158.492 80.039 158.115 79.9448 157.927 79.6621C157.644 79.3794 157.55 79.0967 157.55 78.6255V71.2757H146.714V78.6255C146.714 79.0967 146.619 79.4736 146.337 79.6621C146.054 79.9448 145.771 80.039 145.3 80.039Z" fill="white"/>
<path d="M13.6631 71.37C13.0978 70.7104 12.2497 70.2393 11.3074 70.0508C12.1555 69.7681 12.8151 69.297 13.2862 68.7316C13.9458 67.9778 14.3227 66.9413 14.3227 65.8105C14.3227 64.774 14.04 63.8317 13.5689 63.0779C13.0978 62.3241 12.3439 61.7587 11.4016 61.3818C10.4594 61.0049 9.32862 60.8164 8.00942 60.8164H1.50766C1.03652 60.8164 0.659601 60.9106 0.376915 61.1933C0.0942299 61.476 0 61.8529 0 62.3241V78.5314C0 79.0025 0.0942299 79.3794 0.376915 79.6621C0.565372 79.8506 0.942286 80.039 1.3192 80.039C1.69611 80.039 2.07303 79.8506 2.26149 79.6621C2.54417 79.3794 2.6384 79.0025 2.6384 78.5314V62.9837H7.53828C8.85748 62.9837 9.79977 63.2663 10.5536 63.7375C11.2132 64.3029 11.5901 65.0567 11.5901 66.0932C11.5901 67.1297 11.2132 67.8836 10.5536 68.4489C9.894 69.0143 8.85748 69.2027 7.53828 69.2027H5.74794C5.18257 69.2027 4.6172 69.6739 4.6172 70.3335C4.6172 70.9931 5.08834 71.4642 5.74794 71.4642H8.00942C9.32862 71.4642 10.3651 71.7469 11.0247 72.2181C11.6843 72.7834 11.967 73.5373 11.967 74.668C11.967 75.7987 11.6843 76.5526 11.0247 77.1179C10.3651 77.6833 9.32862 77.966 8.00942 77.966H5.74794C5.18257 77.966 4.6172 78.4371 4.6172 79.0967C4.6172 79.6621 5.08834 80.2275 5.74794 80.2275H8.29211C10.3651 80.2275 11.8728 79.7563 13.0035 78.8141C14.1343 77.8718 14.6996 76.5526 14.6996 74.8564C14.7939 73.2546 14.417 72.2181 13.6631 71.37Z" fill="white"/>
</svg>
