<svg width="44" height="70" viewBox="0 0 44 70" fill="none" xmlns="http://www.w3.org/2000/svg">
<g clip-path="url(#clip0_137_8285)">
<path d="M9.6204 30L1.04897 37.0476C-0.189126 38 -0.284365 39.7143 0.668016 40.8571L10.0966 52.0952C10.0966 52.0952 12.1918 51.0476 10.0966 44.9524C8.00135 38.8571 7.42992 39.6191 16.7633 36.5714L9.6204 30Z" fill="#75BBB8"/>
<path d="M34.1918 30L42.7632 37.0476C44.0013 38 44.0966 39.7143 43.1442 40.8571L33.7156 52.0952C33.7156 52.0952 31.6204 51.0476 33.7156 44.9524C35.8109 38.8571 36.3823 39.6191 27.049 36.5714L34.1918 30Z" fill="#75BBB8"/>
<path d="M26.6689 5.52344C25.4308 6.47582 23.8118 7.14248 21.907 7.14248C20.0975 7.14248 18.3832 6.57106 17.1451 5.52344C13.4308 11.2377 8.85938 21.9044 8.85938 40.0949H21.8118H34.7641C34.9546 21.8091 30.3832 11.1425 26.6689 5.52344Z" fill="#332B68"/>
<path d="M26.6683 5.52381C24.0969 1.61905 21.9064 0 21.9064 0C21.9064 0 19.716 1.52381 17.1445 5.52381C18.3826 6.47619 20.0017 7.14286 21.9064 7.14286C23.8112 7.04762 25.4302 6.47619 26.6683 5.52381Z" fill="#85B867"/>
<path d="M28.5725 21.9054C28.5725 25.5245 25.6202 28.4768 22.0011 28.4768C18.3821 28.4768 15.4297 25.5245 15.4297 21.9054C15.4297 18.2864 18.3821 15.334 22.0011 15.334C25.6202 15.334 28.5725 18.2864 28.5725 21.9054Z" fill="#E6E6E6"/>
<path d="M25.81 21.9048C25.81 24 24.0957 25.8095 21.9052 25.8095C19.81 25.7143 18.0957 24 18.0957 21.9048C18.0957 19.8095 19.81 18 22.0005 18C24.0957 18 25.81 19.7143 25.81 21.9048Z" fill="#75BBB8"/>
<path d="M22.0974 20.4754C22.0974 21.2374 21.5259 21.904 20.6688 21.904C19.9069 21.904 19.2402 21.2374 19.2402 20.4754C19.2402 19.7135 19.9069 19.0469 20.6688 19.0469C21.5259 19.1421 22.0974 19.7135 22.0974 20.4754Z" fill="white"/>
<path d="M24.9545 11.0485C24.9545 12.6676 23.7164 13.9057 22.0974 13.9057C20.4783 13.9057 19.2402 12.6676 19.2402 11.0485C19.2402 9.4295 20.4783 8.19141 22.0974 8.19141C23.7164 8.19141 24.9545 9.52474 24.9545 11.0485Z" fill="#E6E6E6"/>
<path d="M23.6218 11.0472C23.6218 11.9044 22.9552 12.5711 22.098 12.5711C21.2409 12.5711 20.5742 11.9044 20.5742 11.0472C20.5742 10.1901 21.2409 9.52344 22.098 9.52344C22.9552 9.52344 23.6218 10.1901 23.6218 11.0472Z" fill="#75BBB8"/>
<path d="M22.0022 41.1426C22.0022 41.1426 12.8594 42.3807 12.8594 47.8092C12.8594 53.2378 15.2403 61.9045 22.0022 69.9997C28.6689 61.9997 31.1451 53.3331 31.1451 47.8092C31.1451 42.2854 22.0022 41.1426 22.0022 41.1426Z" fill="#85B867"/>
<path d="M22.0028 43.334C22.0028 43.334 16.5742 44.0006 16.5742 47.2387C16.5742 50.4768 18.0028 55.5245 22.0028 60.2864C25.9076 55.5245 27.4314 50.4768 27.4314 47.2387C27.3361 44.0959 22.0028 43.334 22.0028 43.334Z" fill="#E6E6E6"/>
<path d="M22.0013 45.4277C22.0013 45.4277 18.668 45.9039 18.668 47.8087C18.668 49.7134 19.5251 52.9515 22.0013 55.8087C24.4775 52.8563 25.3346 49.7134 25.3346 47.8087C25.3346 45.9039 22.0013 45.4277 22.0013 45.4277Z" fill="white"/>
<path d="M22.096 10.5714C22.096 10.8571 21.8103 11.1429 21.5246 11.1429C21.2388 11.1429 20.9531 10.8571 20.9531 10.5714C20.9531 10.2857 21.2388 10 21.5246 10C21.8103 10 22.096 10.1905 22.096 10.5714Z" fill="white"/>
<path opacity="0.2" d="M42.7629 37.1429L34.382 30.2857C33.1439 17.9048 29.6201 10.0952 26.5725 5.52381C24.001 1.61905 21.8105 0 21.8105 0V40H34.7629C35.1439 40.9524 34.4772 42.2857 33.5248 44.9524C31.4296 51.0476 33.5248 52.0952 33.5248 52.0952L43.1439 40.9524C44.1915 39.8095 44.001 38.0952 42.7629 37.1429Z" fill="#C1C3C2"/>
<path opacity="0.2" d="M22 41.1426V69.9997C28.6667 61.9997 31.1429 53.3331 31.1429 47.8092C31.1429 42.2854 22 41.1426 22 41.1426Z" fill="#C1C3C2"/>
</g>
<defs>
<clipPath id="clip0_137_8285">
<rect width="43.8095" height="70" fill="white"/>
</clipPath>
</defs>
</svg>
