<svg width="61" height="54" viewBox="0 0 61 54" fill="none" xmlns="http://www.w3.org/2000/svg">
<path d="M29 21.8333L2.33333 4.16667V39.6667C2.33333 40.4444 2.58333 41.0833 3.08333 41.5833C3.58333 42.0833 4.22222 42.3333 5 42.3333H34.5V44.6667H5C3.55556 44.6667 2.36111 44.1944 1.41667 43.25C0.472222 42.3056 0 41.1111 0 39.6667V5C0 3.55556 0.472222 2.36111 1.41667 1.41667C2.36111 0.472221 3.55556 0 5 0H53C54.4445 0 55.6389 0.472221 56.5834 1.41667C57.5278 2.36111 58 3.55556 58 5V27.8333H55.6667V4.16667L29 21.8333ZM29 19L54.3334 2.33333H3.66667L29 19ZM50.6667 53.75L49.0833 52.1667L56.4167 44.6667H39.5V42.3333H56.5L49 34.8333L50.6667 33.25L60.9167 43.5L50.6667 53.75ZM2.33333 4.16667V44.25V27.8333V28.5V2.33333V4.16667Z" fill="#332B68"/>
</svg>
