<svg width="20" height="20" viewBox="0 0 20 20" fill="none" xmlns="http://www.w3.org/2000/svg">
<mask id="mask0_374_18682" style="mask-type:alpha" maskUnits="userSpaceOnUse" x="0" y="0" width="20" height="20">
<rect x="20" y="20" width="20" height="20" transform="rotate(-180 20 20)" fill="#D9D9D9"/>
</mask>
<g mask="url(#mask0_374_18682)">
<path d="M13.3164 1.95768L14.5039 3.14518L7.64974 9.99935L14.5039 16.8535L13.3164 18.041L5.27474 9.99935L13.3164 1.95768Z" fill="#494848"/>
</g>
</svg>
