<svg width="28" height="27" viewBox="0 0 28 27" fill="none" xmlns="http://www.w3.org/2000/svg">
<g clip-path="url(#clip0_419_1516)">
<path d="M12.041 16.023L16.4305 13.4949L12.041 10.9668V16.023Z" fill="white"/>
<path d="M13.7226 0C6.27115 0 0.228516 6.04263 0.228516 13.4941C0.228516 20.9455 6.27115 26.9881 13.7226 26.9881C21.174 26.9881 27.2166 20.9455 27.2166 13.4941C27.2166 6.04263 21.174 0 13.7226 0ZM22.1543 13.5079C22.1543 13.5079 22.1543 16.2445 21.8071 17.5641C21.6126 18.2865 21.043 18.856 20.3207 19.0504C19.0011 19.3977 13.7226 19.3977 13.7226 19.3977C13.7226 19.3977 8.45784 19.3977 7.12441 19.0366C6.4021 18.8422 5.83258 18.2724 5.638 17.5501C5.29064 16.2445 5.29064 13.4941 5.29064 13.4941C5.29064 13.4941 5.29064 10.7576 5.638 9.43798C5.83237 8.71567 6.4159 8.13214 7.12441 7.93777C8.44405 7.59041 13.7226 7.59041 13.7226 7.59041C13.7226 7.59041 19.0011 7.59041 20.3207 7.95156C21.043 8.14593 21.6126 8.71567 21.8071 9.43798C22.1683 10.7576 22.1543 13.5079 22.1543 13.5079Z" fill="white"/>
</g>
<defs>
<clipPath id="clip0_419_1516">
<rect width="26.9881" height="26.9881" fill="white" transform="translate(0.228516)"/>
</clipPath>
</defs>
</svg>
